…
# get the data into R with the base R function
compensation_br <- read.csv("data/compensation.csv")

## get the data into R with the tidyverse function
compensation_tv <- read_csv("data/compensation.csv")

(In case you didn’t spot the difference, its the full stop or underscore between readand csv.)

What’s the difference here? One big one is read.csv converts character variables to factors. Many people prefer this doesn’t happen automatically (read_csv doesn’t do this). Another is read.csv creates a data.frame while read_csvcreates a tibble. One nice thing about a tibble is how it looks in the Console – a much more considerate view than one often get with a big dataframe:

compensation_tv

## # A tibble: 40 x 3
##     Root Fruit  Grazing
##    <dbl> <dbl>    <chr>
##  1 6.225 59.77 Ungrazed
##  2 6.487 60.98 Ungrazed
##  3 4.919 14.73 Ungrazed
##  4 5.130 19.28 Ungrazed
##  5 5.417 34.25 Ungrazed
##  6 5.359 35.53 Ungrazed
##  7 7.614 87.73 Ungrazed
##  8 6.352 63.21 Ungrazed
##  9 4.975 24.25 Ungrazed
## 10 6.930 64.34 Ungrazed
## # ... with 30 more rows
…
dplyr is a toolbox with a set of functions, each optimised to do one thing and one thing very well, and very fast. It is also designed to help you by first giving the data frame (or more likely tibble) in which all of your variables are stored, and then asking for things to happen. This is a highly standardised toolbox. We like this.

Lets work with three examples - getting a column, getting rows and subsetting your data based on values of a variable. We look at base and dplyr methods to do each.

To run the code, you’ll need to download the dataset compensation.csv from the R4All website (get the zip file of all the datasets, upack it, and you’ll see the compensation.csv dataset.

Get columns with dplyr

With dplyr, we can select a column with one function two ways:

# use select().  The first argument is the data frame and the second is the column.
select(compensation_tv, Fruit)

## # A tibble: 40 x 1
##    Fruit
##    <dbl>
##  1 59.77
##  2 60.98
##  3 14.73
##  4 19.28
##  5 34.25
##  6 35.53
##  7 87.73
##  8 63.21
##  9 24.25
## 10 64.34
## # ... with 30 more rows
…
